…
``` r
mt_income <- read_csv('https://raw.githubusercontent.com/stat408/Data/refs/heads/main/MT_Income.csv'); mt_income
```

    Rows: 2968 Columns: 10
    ── Column specification ────────────────────────────────────────────────────────
    Delimiter: ","
    chr (6): Area, Income Type, Source, Period Type, State Name, Income
    dbl (3): ID, Year, Income Rank
    num (1): Population

    ℹ Use `spec()` to retrieve the full column specification for this data.
    ℹ Specify the column types or set `show_col_types = FALSE` to quiet this message.

    # A tibble: 2,968 × 10
           ID Area       Year `Income Type` Source `Period Type` `State Name` Income
        <dbl> <chr>     <dbl> <chr>         <chr>  <chr>         <chr>        <chr> 
     1 536483 Beaverhe…  2022 Per capita i… BEA    Annual        Montana      $60,9…
     2 536495 Yellowst…  2022 Per capita i… BEA    Annual        Montana      $63,5…
     3 536501 Valley     2022 Per capita i… BEA    Annual        Montana      $59,5…
     4 536503 Wheatland  2022 Per capita i… BEA    Annual        Montana      $46,6…
     5 536505 Wibaux     2022 Per capita i… BEA    Annual        Montana      $46,5…
     6 536507 Teton      2022 Per capita i… BEA    Annual        Montana      $60,1…
     7 536509 Toole      2022 Per capita i… BEA    Annual        Montana      $59,6…
     8 536511 Treasure   2022 Per capita i… BEA    Annual        Montana      $51,5…
     9 536513 Silver B…  2022 Per capita i… BEA    Annual        Montana      $56,5…
    10 536515 Stillwat…  2022 Per capita i… BEA    Annual        Montana      $68,1…
    # ℹ 2,958 more rows
    # ℹ 2 more variables: `Income Rank` <dbl>, Population <dbl>
…
